"#","Nume","Prenume","Media","Actions"
"<td class=""kv-align-center kv-align-middle"" style=""width:50px;"" data-col-seq=""0"">1</td>","Crisan","Marian","10",""
"<td class=""kv-align-center kv-align-middle"" style=""width:50px;"" data-col-seq=""0"">2</td>","Danciu","Andrea","8",""
"<td class=""kv-align-center kv-align-middle"" style=""width:50px;"" data-col-seq=""0"">3</td>","Filan","Ioana-Karina","10",""
"<td class=""kv-align-center kv-align-middle"" style=""width:50px;"" data-col-seq=""0"">4</td>","Ganea","Lavinia Denisa","8",""
